[
  {
    "enabled": "false",
    "updateUrl": "https://www.gitlab.com/JasonAspire/Style/-/blob/master/Stylus%20CSS/Google%20Drive%20Dark%20(from%20UserStyles).user.css",
    "md5Url": "null",
    "url": "https://www.gitlab.com/JasonAspire/Style/",
    "originalMd5": "null",
    "name": "Google Drive Dark (from UserStyles)",
    "sections": [
      {
        "code": "/* ==UserStyle==\n@name       \tGoogle Drive Dark\n@version    \t1.0.0\n@description\tGoogle Drive Dark theme for Stylish\n@namespace  \thttp://www.w3.org/1999/xhtml\n@homepageURL\thttps://github.com/SicariusNoctis/Stylish-Google-Drive-Dark\n@supportURL \thttps://github.com/SicariusNoctis/Stylish-Google-Drive-Dark/issues\n@author     \tMateen Ulhaq\n@license    \tGPL\n==/UserStyle== */\n\n\n@-moz-document /*[[theme_drive]]*/, /*[[theme_docs]]*/, /*[[theme_sheets]]*/, /*[[theme_sheets_canvas]]*/\n{\n  :root\n  {\n\t--page-bgrnd-color: /*[[page_bgrnd_color]]*/;\n\t--normal-text-color:  /*[[normal_text_color]]*/;\n\t--caret-border-color: /*[[caret_border_color]]*/;\n\t--caret-glow-color:   /*[[caret_glow_color]]*/;\n\t--home-sidebar-color: /*[[home_sidebar_color]]*/;\n\t--home-list-color:\t/*[[home_list_color]]*/;\n  }\n}\n\n@-moz-document /*[[theme_drive]]*/\n{\n\n  html, body, .drive_main_page\n  {\n\tbackground: #333 !important;\n  }\n\n  input\n  {\n\tbackground: #444 !important;\n\tcolor: #aaa !important;\n  }\n\n/* Header bar */\n  .gb_ad,\n  .gb_ce, .gb_de, .gb_ge, .gb_he, .gb_je, .gb_re, .gb_se, .gb_ue, .gb_we,\n  .docs-material-appbar #docs-header .docs-titlebar-buttons\n  {\n\tbackground: var(--home-sidebar-color) !important;\n  }\n\n  /* +<Google+ Username> */\n  #gb#gb a.gb_P, #gb#gb span.gb_P\n  {\n\tcolor: #aaa !important;\n  }\n\n  /* Search bar whole panel default background */\n  #gb *\n  {\n\tbackground: #333;\n  }\n\n  /* Search bar outer box */\n  .gbqfqw\n  {\n\tbackground: #444 !important;\n  }\n\n  /* Search bar inner search items */\n  .a-s-yd-Zj\n  {\n\tbackground-color: #333 !important;\n\tcolor: #aaa !important;\n  }\n\n  /* Search bar dropdown button */\n  .gb_2d.a-nb-Va-d-Gk-M\n  {\n\tfilter: invert(1);\n  }\n\n  /* Logo, icons */\n  .gb_ga.gb_2\n  {\n\tfilter: invert(1);\n  }\n\n/* Toolbar */\n  .a-D-B-x\n  {\n\tfilter: invert(89%);\n\tbackground: #fdfdfd !important;\n\tbox-shadow: none !important;\n\tborder-bottom: 1px solid #F0F0F0 !important;\n  }\n\n/* Files */\n/* List view */\n  .a-t,\n  .a-t-cb span, /* + */\n  .a-gd-Oa-Tl /* + */\n  {\n\tbackground: var(--home-list-color) !important;\n\tcolor: #ccc !important;\n  }\n\n  /* List view folder background */\n  .a-t-j.a-t-gc-xl\n  {\n\tbackground: var(--home-list-color) !important;\n  }\n\n  /* List view sort bar */\n  .a-t-D\n  {\n\tfilter: invert(85%);\n\tbackground: #fcfcfc !important;\n  }\n\n  /* Grid view */\n  /* Grid view background */\n  .a-u-j\n  {\n\tbackground-color: #333333 !important;\n  }\n\n  /* Grid view. Item background */\n  .l-u-Ab-zb\n  {\n\tbackground: #555 !important;\n  }\n\n  .l-u-xb\n  {\n\tbackground: #444 !important;\n  }\n\n  /* Grid view folder tab */\n  .l-u-o-V-j\n  {\n\tbackground-color: #272727 !important;\n  }\n\n  /* Grid view folder tab icon */\n  .l-u-o-c-j\n  {\n\tbackground-color: #222222 !important;\n  }\n\n  /* Grid view selected folder tab */\n  .l-u-ha .l-u-o-V-j\n  {\n\tbackground-color: #4285F4 !important;\n  }\n\n  /* Grid view selected folder tab icon */\n  .l-u-ha .l-u-o-c-j\n  {\n\tbackground-color: #4285F4 !important;\n  }\n\n  /* Grid view document names */\n  .l-u-V\n  {\n\tcolor: #ddd !important;\n  }\n\n  /* Left Sidebar */\n  .a-qc-La,\n  .a-da-Mf-B-ji-j,\n  [class^=a-U-J], /* list items */\n  .xd-cr-lv   \t/* storage used label */\n  {\n\tbackground: var(--home-sidebar-color) !important;\n\tcolor: #ccc !important;\n\tfont-family: Arial !important;\n  }\n\n  /* Hovered item */\n  :not(.a-U-ye-ha) > .a-U-J:hover\n  {\n\tbackground: none !important;\n  }\n\n  /* Selected item */\n  .a-U-ag-da > .a-U-H\n  {\n\tbackground-color: #4285F4 !important;\n  }\n\n  /* Selected item text */\n  .a-U-ag-da > .a-U-H > .a-U-H-s\n  {\n\tcolor: #E9E5D4 !important;\n  }\n\n  /* Right sidebar */\n  /* Sidebar Background */\n  .a-ub-j,\n  .a-ub-Gd div\n  {\n\tbackground: var(--home-sidebar-color) !important;\n  }\n\n  /* Document Title */\n  .a-Mg-V-T\n  {\n\tcolor: #ddd !important;\n  }\n\n  /* Selected Tab */\n  .a-ub-ra-B > .h-ra-B > .h-ra-ha\n  {\n\tcolor: #aaa !important;\n  }\n\n  /* Unselected Tab */\n  .a-ub-ra-B > .h-ra-B > .h-ra\n  {\n\tcolor: #888 !important;\n  }\n\n  /* Details Tab */\n\n  /* Details Text */\n  .a-q-Jc-bj,\n  [class^=a-q-Ed-] *\n  {\n\tcolor: #ccc !important;\n  }\n\n  /* Activity Tab */\n\n  /* Activity Content Background */\n  .y-E-j\n  {\n\tbackground: #202020 !important;\n  }\n\n  /* Activity Content Headings (\"Earlier this week\") */\n  .y-C-Ed-V\n  {\n\tcolor: #aaa !important;\n  }\n\n  /* Activity Content Heading - Scrolled up*/\n  .y-E-gh-D .y-C-Ed-V\n  {\n\tbackground: #202020 !important;\n\topacity: 0.9 !important;\n  }\n\n  /* Activity Content */\n  .y-C\n  {\n\tbackground-color: #333 !important;\n  }\n\n  /* Activity Content Document Names */\n  .y-C-q-j,\n  .y-C-H-Sb,\n  .y-E-Xc-Ma-hi-r /* No recorded activity... label */\n  {\n\tcolor: #ccc !important;\n  }\n\n  /* Activity Content Dates */\n  .y-C-at\n  {\n\tcolor: #888 !important;\n  }\n\n  /* Activity Content Action (\"You created an item in\") */\n  .y-C-q-D\n  {\n\tcolor: #aaa !important;\n  }\n\n  /* Popup messages */\n  /* Google Photos message */\n  .a-fa-vg-Q\n  {\n\tbackground-color: #444 !important;\n  }\n\n  /* Storage usage */\n  .ml-pp *\n  {\n\tbackground-color: #333 !important;\n\tcolor: #ccc !important;\n  }\n}\n\n@-moz-document /*[[theme_docs]]*/\n{\n\n  /* PAGE */\n\n  .kix-page,\n  .kix-page-content-wrapper\n  {\n\tbackground: var(--page-bgrnd-color) !important;\n  }\n\n  .kix-page-paginated,\n  .kix-paginateddocumentplugin-compact-mode\n  {\n\tbox-shadow: none !important;\n  }\n\n  .kix-page span,\n  .kix-wordhtmlgenerator-word-node\n  {\n\tfilter: invert(1) hue-rotate(180deg);\n  }\n\n  .navigation-widget,\n  .navigation-item-content\n  {\n\tcolor: var(--normal-text-color) !important;\n  }\n\n  .kix-cursor-caret\n  {\n\tdisplay: block !important;\n\tborder-color: var(--caret-border-color) !important;\n\tbox-shadow: 0 0 0px  var(--caret-glow-color),\n            \t0 0 15px var(--caret-glow-color),\n            \t0 0 50px var(--caret-glow-color);\n  }\n\n  /* Print Layout disabled fixes */\n\n  .kix-paginateddocumentplugin-compact-mode\n  {\n\tborder: 1px solid #111 !important;\n  }\n\n\t/* Unique selector for .docs-ui-unprintable */\n  .kix-paginateddocumentplugin > div:nth-child(3)\n  {\n\tbackground: var(--page-bgrnd-color) !important;\n  }\n\n  /* Background */\n\n  #docs-editor\n  {\n\tbackground: #111 !important;\n  }\n\n  /* Ruler */\n  #kix-ruler\n  {\n\tborder-bottom: none !important;\n  }\n\n  .kix-ruler-background-inner\n  {\n\tbackground: #444 !important;\n  }\n\n  .kix-ruler-face-number\n  {\n\tcolor: #aaa !important;\n  }\n\n  .kix-ruler-face-minor-division, .kix-ruler-face-major-division\n  {\n\tborder-left: 1px solid #aaa !important;\n  }\n\n  /* Embedded tables */\n  td.kix-tablerenderer-td\n  {\n\tborder-color: #757575 !important;\n  }\n\n  /* Navigation and Menu */\n\n  /* Equation toolbar */\n  .kix-equation-toolbar-icon, .kix-equation-toolbar-palette\n  {\n\tfilter: invert(1);\n  }\n\n  .kix-equation-toolbar-palette-item\n  {\n\tborder: 1px solid #444 !important;\n  }\n\n  /* Toolbar Menu Search */\n  .goog-toolbar\n  {\n\tbackground: #444 !important;\n  }\n\n  .docs-omnibox-input\n  {\n\tbackground: #333 !important;\n\tcolor: #aaa !important;\n  }\n\n  .jfk-textinput\n  {\n\tborder-color: #555 !important;\n  }\n\n  .docs-omnibox-autocomplete .ac-renderer\n  {\n\tbackground: #555 !important;\n\tbox-shadow: 0 0 1px #444,\n            \t0 0 2px #444,\n            \t0 0 4px #444;\n\tborder: 1px solid #666 !important;\n  }\n\n  .docs-omnibox-autocomplete .ac-active\n  {\n\tbackground: #333 !important;\n  }\n}\n\n@-moz-document /*[[theme_sheets]]*/\n{\n\n  /* Formula bar */\n  #formula-bar\n  {\n\tbackground: #333 !important;\n  }\n\n  #t-formula-bar-input\n  {\n\tbackground: #333 !important;\n\tcolor: #ddd !important;\n  }\n\n\t/* Input box */\n  .cell-input\n  {\n\tfilter: brightness(60%) saturate(250%) contrast(500%) invert(100%) hue-rotate(180deg);\n  }\n\n\t/* Input box: text only (pre-input box filter) */\n  .formula-content\n  {\n\tfilter: contrast(80%);\n\tcolor: #DA64FF !important;\n  }\n\n  .formula-content > .insert-range-indicator\n  {\n\tbackground: #6D6F00 !important;\n  }\n\n  .default-formula-text-color\n  {\n\tcolor: #4ECFE4 !important;\n  }\n\n  .formula-content > .number\n  {\n\tcolor: #FF93F6 !important;\n  }\n\n  .formula-content > .match-paren\n  {\n\tbackground-color: #666 !important;\n\tfont-weight: 900 !important;\n\tletter-spacing: 2px !important;\n  }\n\n  .formula-content > .inactive\n  {\n\topacity: 0.7 !important;\n  }\n\n  /* Formula -> function autocomplete */\n  .waffle-ac-active\n  {\n\tbackground-color: #441020 !important;\n\tborder-top: 1px solid #333 !important;\n\tborder-bottom: 1px solid #333 !important;\n  }\n\n  .waffle-ac-renderer\n  {\n\tbackground-color: #333 !important;\n  }\n\n  .waffle-function-autocomplete-row-name\n  {\n\tcolor: #FF8888 !important;\n  }\n\n  .waffle-arguments-help-body\n  {\n\tborder-top: 1px solid #4D353C !important;\n  }\n\n  .waffle-function-autocomplete-row-description\n  {\n\tcolor: #b7b7b7 !important;\n  }\n\n  /* Formula -> function help */\n  .waffle-arguments-help-title\n  {\n\tbackground-color: #220710 !important;\n\tcolor: #FF8888 !important;\n  }\n\n  .waffle-arguments-help-popup\n  {\n\tbackground-color: #441020 !important;\n\tcolor: #b7b7b7 !important;\n  }\n\n  .waffle-arguments-help-section-title\n  {\n\tcolor: #777 !important;\n  }\n\n  .waffle-arguments-help-parameter-active\n  {\n\tbackground-color: #3E3F00 !important;\n  }\n\n  /* Random white elements */\n  .grid-shim-bottom\n  {\n\tbackground-color: #636363 !important;\n  }\n\n  /* Sheets bar */\n  .grid-bottom-bar\n  {\n\tbackground-color: #1A1A1A !important;\n\tborder-top: 1px solid #777 !important;\n  }\n\n  .docs-sheet-tab\n  {\n\tbackground-color: #222 !important;\n\tcolor: #bbb !important;\n\tborder-color: #777 #373737 #333 #373737 !important;\n  }\n\n  .docs-sheet-tab-hover\n  {\n\tbackground-color: #444 !important;\n\tcolor: #bbb !important;\n\tborder-color: #777 #373737 #333 #373737 !important;\n  }\n\n  .docs-sheet-active-tab\n  {\n\tbackground-color: #444 !important;\n\tcolor: #bbb !important;\n\tborder-color: #777 #373737 #333 #373737 !important;\n  }\n\n  .docs-sheet-button-inner-box:hover, .docs-sheet-button-outer-box:hover\n  {\n\tbackground-color: #444 !important;\n\tborder-color: #444 !important;\n  }\n\n  .docs-sheet-button-icon:hover\n  {\n\tfilter: invert(1);\n  }\n\n  /* Tour button */\n  .docs-sheet-message-container-button\n  {\n\tbackground: #222 !important;\n  }\n\n  #docs-sheet-message-container,\n  .docs-sheet-status-container\n  {\n\tborder-left: 1px solid #333 !important;\n  }\n}\n\n@-moz-document /*[[theme_sheets_canvas]]*/\n{\n\n  /* Canvas */\n  /* See http://www.w3.org/TR/selectors/#lex */\n  div[id*='grid-table-container'] > canvas\n  {\n\tfilter: invert(90%) hue-rotate(180deg);\n  }\n\n  .grid-container\n  {\n\tbackground-color: #111 !important;\n  }\n\n  .input-box\n  {\n\tbackground-color: #333 !important;\n\t/* color: #eee !important; */;\n  }\n}\n\n\n/* COMMON */\n\n@-moz-document /*[[theme_docs]]*/, /*[[theme_sheets]]*/\n{\n\n  /* Navigation and Menu */\n\n  #docs-chrome\n  {\n\tbackground: #333 !important;\n\tcolor: #999 !important;\n  }\n\n  input\n  {\n\tbackground: var(--page-bgrnd-color) !important;\n\tcolor: #777 !important;\n  }\n\n  .docs-title-input,\n  .docs-title-input:focus\n  {\n\tcolor: #777 !important;\n  }\n\n  .docs-title-inner\n  {\n\tcolor: #777 !important;\n  }\n\n  .docs-material #docs-header .docs-titlebar-buttons\n  {\n\tbackground-color: var(--page-bgrnd-color) !important;\n  }\n\n  /* Toolbar strip */\n\n  .goog-toolbar-separator.goog-inline-block\n  {\n\tborder-left: 1px solid #666 !important;\n  }\n\n  #docs-toolbar-wrapper\n  {\n\tbackground-color: #444 !important;\n\tbackground-image: none !important;\n\tborder-color: #777 !important;\n\tbox-shadow: 0px 1px 0px 0px #808080 inset !important;\n  }\n\n  .goog-toolbar-button,\n  .goog-toolbar-combo-button,\n  .goog-toolbar-combo-button-input,\n  .goog-toolbar-menu-button\n  {\n\tcolor: #aaa !important;\n\tbackground-color: #444 !important;\n  }\n\n  .goog-menu\n  {\n\tbackground: #555 !important;\n\tbox-shadow: 0 0 1px #444,\n            \t0 0 2px #444,\n            \t0 0 4px #444;\n\tborder: 1px solid #666 !important;\n  }\n\n  .goog-menuitem, .goog-tristatemenuitem, .goog-filterobsmenuitem\n  {\n\tcolor: #ddd !important;\n  }\n\n  .docs-icon-img:before\n  {\n\t/* invert icon colors */\n\tfilter: invert(1);\n  }\n\n  .goog-toolbar-button-selected, .goog-toolbar-button-checked, .goog-toolbar-menu-button-open\n  {\n\tbackground-image: -moz-linear-gradient(center top , #888, #8F8F8F);\n  }\n\n  .goog-toolbar-button-hover, .goog-toolbar-menu-button-hover\n  {\n\tbackground-image: -moz-linear-gradient(center top , #999, #9F9F9F);\n  }\n}\n\n\n",
        "domain": "@-moz-document domain(example.com)"
      }
    ]
  }
]