[
  {
    "enabled": "false",
    "updateUrl": "https://www.gitlab.com/JasonAspire/Style/-/blob/master/Stylus%20CSS/Jama%20Dark.user.css",
    "md5Url": "null",
    "url": "https://www.gitlab.com/JasonAspire/Style/",
    "originalMd5": "null",
    "name": "Jama Dark",
    "sections": [
      {
        "code": " /* ==UserStyle==\n@name Jason Lehmann Setup / Lauren Birnhak Content\n@namespace gitlab.com/JasonAspire/Style\n@homepageURL https://gitlab.com/JasonAspire/Style\n@version 1.0.8\n@updateURL https://www.gitlab.com/JasonAspire/Style/-/blob/master/Stylus%20CSS/Jama%20Dark.user.css\n@description Todo \n@author Lauren Birnhak\n@license GNU-V3.0\n==/UserStyle== */\n/*You may notice that this is extremely rudimentary. That is because I made it to save my eyes and with very little patience to spare.*/\ntd, tr\n{background: #000!important; color: #fff}\nli, strong, h1\n{color: #fff}\nspan, p\n{color: #eee}\ndiv, header\n{background-color: #111!important}\na.x-tree-node-anchor\n{background-color: #222!important; background: #222!important}\nbody a:link, .x-tree-node a span, .x-dd-drag-ghost a span\n{color: #0ac}",
        "domain": "@-moz-document domain(example.com)"
      }
    ]
  }
]