[
  {
    "enabled": "false",
    "updateUrl": "https://www.gitlab.com/JasonAspire/Style/-/blob/master/Stylus%20CSS/Workast%20Dark%20Theme.user.css",
    "md5Url": "null",
    "url": "https://www.gitlab.com/JasonAspire/Style/",
    "originalMd5": "null",
    "name": "Workast Dark Theme",
    "sections": [
      {
        "code": " /* ==UserStyle==\n@name Jason Lehmann Setup / Lauren Birnhak Content\n@namespace gitlab.com/JasonAspire/Style\n@homepageURL https://gitlab.com/JasonAspire/Style\n@version 1.0.8\n@updateURL https://www.gitlab.com/JasonAspire/Style/-/blob/master/Stylus%20CSS/Workast%20Dark%20Theme.user.css\n@description Todo \n@author Lauren Birnhak\n@license GNU-V3.0\n==/UserStyle== */\nroot {\n\t--main-color: #00ADEE\n}\nbody > * > *:not(:empty) {\n\tbackground-color: #222\n}\nbody > * > * > * > *:not(:empty):not([class*=\"header\"]) {\n\tbackground-color: #212121!important\n}\nbody > * > * > * > * > *:not(:empty):not([class*=\"content-header\"]) {\n\tbackground-color: #282828!important\n}\nbody > * > * > * > * > * *:not([class*=\"Selected\"]):not([type*=\"checkbox\"]):not([style]) {\n\tbackground: #2828287a;\n\ttext-shadow: none!important\n}\n.content-header-default{background-color: #057}\n.my-tasks__background-green {background-color: #071!important}\n.my-tasks__background-red {background-color: #700!important}\n.my-tasks__background-blue {background-color: #007!important}\nbody a:hover,\nbody a:hover * {\n\tcolor: #f05152!important;\n\ttext-decoration: underline!important\n}\nbody h1,\nbody h1 *,\nbody h2,\nbody h2 *,\np > strong:only-of-type,\np > b:only-of-type {\n\tcolor: #f05152!important\n}\n.task-list__item:focus, .task-list__item:hover {background: #001; color: #bdf}\n.material-icons {color:#fff}\n.task-list__item {background: #322}\n.task-list__item, zlp-task {color: #ccc}\nspan {color: #fff!important}\nbutton {color: #fff!important}\nbutton:hover {color: #f05152!important}\nheader, nav.navbar {background: #f05152!important}",
        "domain": "@-moz-document domain(example.com)"
      }
    ]
  }
]