[
  {
    "enabled": "false",
    "updateUrl": "https://www.gitlab.com/JasonAspire/Style/-/blob/master/Stylus%20CSS/Zebra%20Jira%20Smaller%20and%20Tighter.user.css",
    "md5Url": "null",
    "url": "https://www.gitlab.com/JasonAspire/Style/",
    "originalMd5": "null",
    "name": "Zebra Jira Smaller and Tighter",
    "sections": [
      {
        "code": " /* ==UserStyle==\n@name Jason Lehmann Setup / Lauren Birnhak Content\n@namespace gitlab.com/JasonAspire/Style\n@homepageURL https://gitlab.com/JasonAspire/Style\n@version 1.0.8\n@updateURL https://www.gitlab.com/JasonAspire/Style/-/blob/master/Stylus%20CSS/Zebra%20Jira%20Smaller%20and%20Tighter.user.css\n@description Todo \n@author Lauren Birnhak\n@license GNU-V3.0\n==/UserStyle== */\n/*\n/*   Fit more of Zebra's Jira pages on your display!\n/*   (a work in progress by MAshburne)\n*/\n\nbody {  font-size: .8rem;\n        line-height: 1rem;\n}\n\n/*\n/*   This is bug title in the 3rd pane\n*/\n\n.adg3 .aui-page-header #summary-val {\n        font-size: 1rem;\n        line-height: 1.2rem;\n}\n\n/*\n/*   Shrinks the Issues and filters in the 2nd pane\n*/\n\n.css-1t5na7c.css-1t5na7c {\n        height: 1.5rem;\n        padding-left: 6px;\n        padding-right: 6px;\n}\n\n.css-e1qto2 {\n        line-height: 1rem;\n}\n\n",
        "domain": "@-moz-document domain(example.com)"
      }
    ]
  }
]