[
  {
    "enabled": "false",
    "updateUrl": "https://www.gitlab.com/JasonAspire/Style/-/blob/master/Stylus%20CSS/JIRA-Dark-(NightShift---DeepDark-recolor).user.css",
    "md5Url": "null",
    "url": "https://www.gitlab.com/JasonAspire/Style/",
    "originalMd5": "null",
    "name": "JIRA Dark (NightShift - DeepDark recolor)",
    "sections": [
      {
        "code": " /* ==UserStyle==\n@name JIRA Dark (NightShift - DeepDark recolor)\n@namespace gitlab.com/JasonAspire/Style\n@homepageURL https://gitlab.com/JasonAspire/Style\n@version 1.0.8\n@updateURL https://www.gitlab.com/JasonAspire/Style/-/blob/master/Stylus%20CSS/JIRA-Dark-(NightShift---DeepDark-recolor).user.css\n@description Todo \n@author Lauren Birnhak\n@license GNU-V3.0\n==/UserStyle== */\nbody,\nhtml {\n\tmin-height: 100%!important;\n}\nhtml,\nbody {\n\tbackground-color: #111!important\n}\nbody > *:not(:empty) {\n\tbackground-color: #222!important\n}\nbody > * > *:not(:empty) {\n\tbackground-color: #222!important\n}\nbody > * > * > *:not(:empty) {\n\tbackground-color: transparent\n}\nbody > * > * > * > *:not(:empty) {\n\tbackground-color: #212121!important\n}\nbody > * > * > * > * > *:not(:empty) {\n\tbackground-color: #282828!important\n}\nbody > * > * > * > * > * *:not([class^=\"tm-label-circle\"]):not([class^=\"tm-status-dropdown\"]):not([class^=\"ghx-grabber\"]):not([class*=\"ghx-active\"]):not([class*=\"aui-icon\"]):not([type*=\"checkbox\"]):not([class*=\"dashboard-item\"]) {\n\tbackground-color: #282828!important\n}\nbody table:not(:empty) {\n\tbackground-color: #212121!important\n}\nbody table > tbody > tr:nth-child(even) {\n\tbackground-color: rgba(0, 0, 0, .2)!important\n}\nbody table > tbody > tr > td:nth-child(odd) {\n\tbackground-color: rgba(0, 0, 0, .1)!important\n}\nbody *:empty:not([class*=\"icon\"]):not([class^=\"tm-\"]):not([class^=\"ghx-grabber\"]) {\n\tbackground-color: #111!important\n}\nbody p:not(:empty),\nbody p *,\nbody h1,\nbody h1 *:not([class*=\"aui-header-logo\"]),\nbody h2,\nbody h2 *,\nbody h3,\nbody h3 *,\nbody h4,\nbody h4 *,\nbody h5,\nbody h5 *,\nbody strong > *,\nbody b > *,\nbody em > *,\nbody i > *,\nbody span > *:not(img) {\n\tbackground: transparent none!important\n}\nbody h1,\nbody h1 *,\nbody h2,\nbody h2 *,\np > strong:only-of-type,\np > b {\n\tcolor: #269ed9!important\n}\nbody h3,\nbody h3 *,\nbody h4,\nbody h4 * {\n\tcolor: #aaa\n}\n/*Lauren: I'm commenting this out because it's more trouble than it's worth. Got the context buttons back on Dasboard gadgets now.\n*:not([onclick]):not(input):not(a):not(img):not([class^=\"UI\"]):not([class^=\"tm-\"]):not([class*=\"icon\"]):not([class*=\"aui-header-logo\"]):not([type*=\"checkbox\"]):not([class*=\"gadget-menu\"]),\nbody a:not(:empty):not([class^=\"inplace_\"]):not([class*=\"tempo-actions-trigger\"]):not([id*=\"logo\"]),\ndiv:not([onclick]):not([class^=\"tm-\"]):not([class*=\"icon\"]):not([url]) {\n\tbackground-image: none;\n}*/\n\n*[onclick] {\n\tcolor: #79a!important\n}\n*[onclick]:hover {\n\tcolor: #0af!important\n}\nbody hr {\n\tbackground: #666 none!important;\n\tcolor: #666!important;\n\tborder: 1px solid #666!important;\n\theight: 1px!important;\n\toverflow: hidden!important;\n\tdisplay: block!important\n}\n* {\n\tcolor: #c0c0c0!important;\n\tborder-color: #60666a!important;\n\tbox-shadow: 0 0 0 #333!important\n}\n* body a,\nbody a * {\n\tcolor: #40a1d0!important;\n}\n\n/* (Lauren: turns out I didn't want this) body a:visited, body a:visited *{color: #666!important;} */\nbody a:hover,\nbody a:hover * {\n\tcolor: #0af!important;\n\ttext-decoration: underline!important\n}\nbody img,\na[href] img,\na[href] button,\ninput[type=\"image\"],\n*[onclick]:empty,\nbody a:empty {\n\topacity: .9!important\n}\nbody img:hover,\na[href]:hover img,\na[href]:hover button,\n*[onclick]:empty:hover,\nbody a:empty:hover {\n\topacity: 1!important\n}\nbody span > img {\n\tvisibility: visible!important\n}\nbody input[type]:not([type*=\"checkbox\"]),\ninput:not([type*=\"checkbox\"]),\nbody textarea,\nbody select {\n\t-moz-appearance: none!important;\n\tcolor: #bbb!important;\n\tborder-radius: 4px !important;\n\tborder-width: 1px!important;\n\tborder-color: rgba(100, 100, 100, .5)!important;\n\tborder-style: solid!important;\n\tbackground: -moz-linear-gradient(top, #202020 40%, #282828, #242424) #222 !important;\n\tbox-shadow: inset 1px 1px 1px #111!important\n}\nbody input[type=\"submit\"],\nbody input[type=\"button\"],\nbody input[type=\"image\"],\nbody input[type=\"reset\"],\nbody button {\n\t-moz-appearance: none!important;\n\tcolor: #bbb!important;\n\tborder-radius: 4px !important;\n\tborder-width: 1px!important;\n\tborder-color: rgba(100, 100, 100, .5)!important;\n\tborder-style: solid!important;\n\tbackground: -moz-linear-gradient(top, #303030 45%, #181818 55%) #222 !important;\n\tbox-shadow: 1px 1px 1px #111!important\n}\nbody input[type]:not([type*=\"checkbox\"]) > *,\nbody textarea > * {\n\t-moz-appearance: none!important;\n\tbackground: transparent none !important;\n\tcolor: #bbb!important;\n\tborder-style: solid!important;\n\tborder-width: 0px!important;\n}\nbody select * {\n\tbackground-color: transparent !important;\n\tcolor: #bbb!important;\n\tborder-style: solid!important;\n\tborder-width: 0px!important;\n}\npre:not(:empty),\ncode:not(:empty),\ncite:not(:empty),\npre:not(:empty) *,\ncode:not(:empty) *,\ncite:not(:empty) * {\n\tbackground-image: url(data:image/gif;base64,R0lGODlhBAAEAIAAABERESIiIiH5BAAAAAAALAAAAAAEAAQAAAIGTACXaHkFADs=)!important;\n\tcolor: #bcc8dc!important;\n}\n.aui-toolbar .toolbar-group .toolbar-trigger,\n.aui-toolbar .aui-dd-parent a.aui-dd-trigger {\n\ttext-shadow: 0 0px 0 white;\n}\n.aui-inline-dialog .buttons-container.content-footer input.cell-add {\n\tbackground: #000!important;\n}\n.aui-sidebar .aui-nav > li > .aui-nav-item > .aui-icon,\n.aui-sidebar-submenu .aui-nav > li > .aui-nav-item > .aui-icon {\n\tfilter: invert(100%);\n\t-webkit-filter: invert(100%);\n}\na.js-quickfilter-button.last.ghx-active,\na.js-quickfilter-button.first.ghx-active,\na.js-quickfilter-button.ghx-active,\n.ghx-controls-filters dd a.ghx-active {\n\tbackground: #3572b0!important;\n}\n.editable-field .overlay-icon {\n\tcolor: transparent!important;\n}\n.tm-wc-item:hover .editable-field .overlay-icon:after,\n.tm-description:hover .editable-field .overlay-icon:after {\n\tcontent: \"\\f142\";\n\tcolor: #7bb4b6;\n\tfont-family: \"Atlassian Icons\";\n\tleft: 10px;\n\tposition: absolute;\n\ttop: 10%;\n}\n.ghx-swimlane-header:after,\n.ghx-swimlane-header.ghx-selected:after {\n\tvisibility: hidden;\n}\n.ghx-grabber {\n\tfilter: brightness(60%);\n\t-webkit-filter: brightness(60%);\n}\n.tm-label-circle {\n\tfilter: brightness(60%) contrast(300%);\n\t-webkit-filter: brightness(60%) contrast(300%);\n}\n.tm-status-dropdown {\n\tfilter: brightness(60%) contrast(150%);\n\t-webkit-filter: brightness(60%) contrast(150%);\n}\n::-webkit-scrollbar {\n\twidth: 12px;\n\t/* This is more usable for users trying to click it. */\n\tbackground-color: rgba(0, 0, 0, 0);\n\t-webkit-border-radius: 100px;\n}\n\n/* hover effect for both scrollbar area, and scrollbar 'thumb' */\n::-webkit-scrollbar:hover {\n\tbackground-color: rgba(0, 0, 0, 0.09);\n}\n\n/* The scrollbar 'thumb' ...that marque oval shape in a scrollbar */\n::-webkit-scrollbar-thumb:vertical {\n\t/* This is the EXACT color of Mac OS scrollbars.\n \tYes, I pulled out digital color meter */\n\tbackground: rgba(0, 0, 0, 0.5);\n\t-webkit-border-radius: 100px;\n}\n::-webkit-scrollbar-thumb:vertical:active {\n\tbackground: rgba(0, 0, 0, 0.61);\n\t/* Some darker color when you click it */\n\t-webkit-border-radius: 100px;\n}\n\nsvg[class=\"svg-icon checked\"], input[type=\"checkbox\"]:checked:not(.slider) + .svg-icon.checked {fill: #0af}\n\n.piechart-center-secondary {fill:#fff!important}\n\n/*For Gadget Headers*/\nh3 {color:#fff!important}\n\n/*You may notice all the exceptions for checkboxes. This is because this theme eats checkboxes for breakfast if you let it.*/\n\n/*Fixing wrapper on access requests*/\n.custom-portal-layout-flag #content-wrapper {background-color: #111}",
        "domain": "@-moz-document domain(example.com)"
      }
    ]
  }
]