[
  {
    "enabled": "false",
    "updateUrl": "https://www.gitlab.com/JasonAspire/Style/-/blob/master/Stylus%20CSS/Teampass.user.css",
    "md5Url": "null",
    "url": "https://www.gitlab.com/JasonAspire/Style/",
    "originalMd5": "null",
    "name": "Teampass",
    "sections": [
      {
        "code": " /* ==UserStyle==\n@name Teampass\n@namespace gitlab.com/JasonAspire/Style\n@homepageURL https://gitlab.com/JasonAspire/Style\n@version 1.0.8\n@updateURL https://www.gitlab.com/JasonAspire/Style/-/blob/master/Stylus%20CSS/Teampass.user.css\n@description Todo \n@author Lauren Birnhak\n@license GNU-V3.0\n==/UserStyle== */\ndiv.items_tree {background-color: #282828; color: #d8d8d8}\na.jstree-hovered:hover {background-color: #181818}\na.jstree-clicked {background-color: #181848!important}\ndiv#item_details_scroll {background-color: #282828; color: #d8d8d8}\ni.fa-link {color: #d8d8d8}\ndiv#main {background-color: #282828; color: #d8d8d8}\ntd {background-color: #181818}\n/*Pulled from JIRA Dark theme to format table headers*/\nth.tooltipstered {-moz-appearance: none!important;\n\tcolor: #93a7c6;\n\tborder-radius: 4px;\n\tborder-width: 1px;\n\tborder-color: rgba(100, 100, 100, .5);\n\tborder-style: solid;\n\tbackground: -moz-linear-gradient(top, #303030 45%, #181818 55%) #222 ;\n\tbox-shadow: 1px 1px 1px #111}\n/*Content Header*/\ndiv.ui-widget-content.ui-corner-all {background: #242424; border: 1px solid #222; color: #c8c8c8}\ndiv.ui-widget-header {background: #242424; border: 1px solid #222; color: #c8c8c8}\nlabel, div#t_items_info.dataTables_info, p.tooltipstered, div#div_dialog_message_text {color: #c8c8c8}\n.fg-button:focus, .ui-button:focus {color: rgb(51,131,187)}\n/*Buttons*/\nbutton.button, i.fa-cogs {border: 1px solid #000;\n\tbackground: -moz-linear-gradient(top, #303030 45%, #181818 55%) #222 ;\n\tbox-shadow: 1px 1px 1px #111}\nbutton.button:hover, button.button:focus, i.fa-cogs:hover, i.fa-cogs:hover {border: 1px solid rgb(51, 131, 187)!important}\n\n/*Login page*/\ndiv.ui-state-highlight {\n\tbackground-color: #333;\n\tcolor: #c8c8c8;\n\tbackground-image: none;\n\tborder-color: #222}\ninput {border: 1px solid #000;\n\tbackground: -moz-linear-gradient(bottom, #303030 45%, #181818 55%) #222;\n\tbox-shadow: 1px 1px 1px #111;\n\tcolor: #a6a6a6}\ninput:focus {border: 1px solid rgb(51, 131, 187)}\n.ui-state-default, button[type=\"button\"][role=\"button\"] {border: 1px solid #000;\n\tbackground: -moz-linear-gradient(top, #303030 45%, #181818 55%) #222;\n\tbox-shadow: 1px 1px 1px #111;\n\tcolor: #a6a6a6}\nspan.ui-button-text:not([class*=\"tooltipstered\"]) {color: #a6a6a6} /*Why does this affect the non-text UI buttons when I leave out the not class tooltipstered part? What was the logic in giving those buttons the class \"ui-button-text\"?*/\n.ui-state-default:hover, button[type=\"button\"][role=\"button\"]:hover {border: 1px solid rgb(51, 131, 187);\n\tcolor: rgb(51, 131, 187)!important}\n.ui-state-default:active, button[type=\"button\"][role=\"button\"]:active {background: -moz-linear-gradient(bottom, #303030 45%, #181818 55%) #222}\n.ui-widget-content {color: #c8c8c8}\n.ui-widget-content {background-image: none; background-color: #222}\n",
        "domain": "@-moz-document domain(example.com)"
      }
    ]
  }
]