[
  {
    "enabled": "false",
    "updateUrl": "https://www.gitlab.com/JasonAspire/Style/-/blob/master/Stylus%20CSS/TimeClock-Tighter-(and-highlighting-less-bright).user.css",
    "md5Url": "null",
    "url": "https://www.gitlab.com/JasonAspire/Style/",
    "originalMd5": "null",
    "name": "TimeClock Tighter (and highlighting less bright)",
    "sections": [
      {
        "code": " /* ==UserStyle==\n@name TimeClock Tighter (and highlighting less bright)\n@namespace gitlab.com/JasonAspire/Style\n@homepageURL https://gitlab.com/JasonAspire/Style\n@version 1.0.8\n@updateURL https://www.gitlab.com/JasonAspire/Style/-/blob/master/Stylus%20CSS/TimeClock-Tighter-(and-highlighting-less-bright).user.css\n@description Todo \n@author Lauren Birnhak\n@license GNU-V3.0\n==/UserStyle== */\n/*\n/*  Is your display of middling resolution? Just want more Time Clock data to show on your screen at a time?\n/*  Michael Ashburne did. Now you can too!\n/*\n*/\n\nbody { font-size: .65rem; line-height: .7rem; }\n\nh1 { font-size: 1.0rem; }\nh2 { font-size: 0.9rem; }\nh3 { font-size: 0.8rem; }\n\n.small-button { font-size: .6rem; padding: 2px 4px; }\n\n.button { font-size: .7rem; padding: 5px 10px; }\n\n.dropdown { font-size: .7rem; padding: 5px 10px; }\n\ndropdown { font-size: .7rem; }\n\noption { font-size: .7rem; }\n\ntable { border-spacing: 1px; }\n\n.tbody { font-size: .65rem;}\n\nth { font-size: .65rem; }\n\n.td { padding: 2px; }\n\noutline-1, outline-2 {\n    font-size: .7rem;\n}\n\n.hilite {\n    background-color: #ffff003d;\n    border: 1px solid #000;\n    padding: 1px;\n}\n\n",
        "domain": "@-moz-document domain(example.com)"
      }
    ]
  }
]