[
  {
    "enabled": "false",
    "updateUrl": "https://www.gitlab.com/JasonAspire/Style/-/blob/master/Stylus%20CSS/Zebra-TDMS-tighter-+-easier-to-read.user.css",
    "md5Url": "null",
    "url": "https://www.gitlab.com/JasonAspire/Style/",
    "originalMd5": "null",
    "name": "Zebra TDMS tighter + easier to read",
    "sections": [
      {
        "code": " /* ==UserStyle==\n@name Zebra TDMS tighter + easier to read\n@namespace gitlab.com/JasonAspire/Style\n@homepageURL https://gitlab.com/JasonAspire/Style\n@version 1.0.8\n@updateURL https://www.gitlab.com/JasonAspire/Style/-/blob/master/Stylus%20CSS/Zebra-TDMS-tighter-+-easier-to-read.user.css\n@description Todo \n@author Lauren Birnhak\n@license GNU-V3.0\n==/UserStyle== */\n /* !!!  fits more of Zebra\u2019s internal test management system (TDMS) on screen  !!! */\n/*                                                                                 */\n/*  Updated for TDMS Version 7 (work in progress)                                  */\n\nHtml, body {\n    font-size: .8rem;\n}    \n\n/*  \u2018webkit-scrollbar\u2019 is not supported by Firefox, IE or Edge (V44)   */\n/*  the default scrollbars are very thin and their colors are not      */\n/*  accessibility-compliant (low contrast), presuming all users to be  */\n/*  wielding mice equipped with scroll-wheels (and not, for example,   */\n/*  a trackpad). This tweak enlarges the scrollbars & boosts contrast. */\n\n::-webkit-scrollbar {\n    width: 20px;\n    height: 10px;\n    background: #777;\n}\n\n::-webkit-scrollbar-thumb { \n    background: #029312;\n    -webkit-border-radius: 1ex;\n}\n\n::-webkit-scrollbar-thumb:hover {\n    background: #0dfb28;\n}\n\n\n\n/*  Shrinking and compacting fonts tables and line heights to fit more info on screen  */\n\n#main {\n    font-family: Arial !important;\n}\n\n.nav-primary li {\n\tLine-height: 1.0;\n\t\n}\n\n.table {\n    display: table;\n    border-collapse: separate;\n    border-spacing: 1px;\n    -webkit-border-horizontal-spacing: 1px;\n    -webkit-border-vertical-spacing: 1px;\n    border-color: grey;\n}\n\n.leftBlock {\n    padding: 1px;\n}\n\n\n.RadComboBoxDropDown_Material .rcbItem>label, .RadComboBoxDropDown_Material .rcbHovered>label, .RadComboBoxDropDown_Material .rcbSelected>label, .RadComboBoxDropDown_Material .rcbDisabled>label, .RadComboBoxDropDown_Material .rcbCheckAllItems>label, .RadComboBoxDropDown_Material .rcbCheckAllItemsHovered>label { \n    padding: 2px 4px!important;\n}\n\n.RadGrid .t-font-icon {\n    height: .8rem;\n    width: 1rem;\n    min-width: 1rem;\n}\n\n.RadGrid_Material { \n    padding: 1px 1px;\n    font-size: .8rem;\n}\n\n\n.RadGrid_Material .rgRow .t-button {\n    font-size: .8rem;\n    line-height: .8rem;\n}\n\n\n.RadGrid_Material .t-button {\n    padding: 1px;\n    border-radius: 50px;\n}\n\n\n.RadGrid_Material .rgHeader { padding: 1px 1px; }\n\n.RadGrid_Material .rgRow>td { \n    padding: 1px 1px; \n    font-size: .8rem;\n    line-height: .8rem;\n}\n\n.RadGrid_Material .rgAltRow>td {  \n    padding: 1px 1px; \n    font-size: .8rem;\n    line-height: 1.0;\n    background: #efefef;\n}\n\n.RadGrid_Material .rgCommandCell .t-button {\n\tpadding: 3px;\n}\t\n\nt-text rgButtonText {\n\tFont-size: .8rem;\n}\n\n\n\n\n/*  Enables alternate row shading in tables for ease of use  */\n\n.RadGrid_MetroTDMS .rgAltRow {background: #eeeeee;}\n\n\n\n\n\n/*  Fixes \"disappearance\" of Test Areas on mouseover when   */\n/*  copying Test Cases From Another Project/Platform        */\n\n\n.RadTreeView_Metro .rtIn { color: #222;}\n\n.RadTreeView_Metro .rtHover .rtIn { color: #25a0da;}\n\n\n\n\n/* Sadly, ctl00_ContentPlaceHolder1_chkProjectTests, ctl00_ContentPlaceHolder1_cbScopeSelection, and ctl00_ContentPlaceHolder1_cbNewTests are ALSO styled INLINE and cannot be tightened. */\n\n/*  The following were tweaks for TDMS prior to V7 and do not apply as well now.\n/*  Keeping them here for future reference.  \n\nctl00_ContentPlaceHolder1_RadGridTest .RadGrid RadGrid_MetroTDMS {\n    line-height: 10px;\n}\n\n\n.TileTitle { font-size: 1.1rem; }\n\n.RadAjaxPanel {\n    font-size: .8rem !important;\n    line-height: .8em !important;\n    overflow: visible;\n}\n\n\n.RadTreeView .rtIn {\n    padding: 1px;\n}\n\n\n.RadTreeView_MetroTDMS {\n    font-size: .65rem !important;\n    font-family: Arial !important;\n}\n\n.RadGrid_MetroTDMS .rgMasterTable, .RadGrid_MetroTDMS .rgDetailTable, .RadGrid_MetroTDMS .rgGroupPanel table, .RadGrid_MetroTDMS .rgCommandRow table, .RadGrid_MetroTDMS .rgEditForm table, .RadGrid_MetroTDMS .rgPager table {\n    font-size: 9px;\n    line-height: 1.0rem;\n}\n\n.RadGrid_MetroTDMS .rgRow > td, .RadGrid_MetroTDMS .rgAltRow > td, .RadGrid_MetroTDMS .rgEditRow > td {\n    border-left: 1px solid #e5e5e5;\n    border-bottom: 1px solid #e5e5e5;\n    padding-top: 2px;\n    padding-bottom: 1px;\n    padding-left: 1px;\n    padding-right: 1px;\n    font-family: Ubuntu Light;\n    font-size: 10px;\n}\n\n.RadDropDownList{\n   width: 130px;\n   line-height: 1.0;\n   text-align: center;\n   display: inline-block;\n   vertical-align: middle;\n   white-space: nowrap;\n   cursor: default;\n}\n\n.RadDropDownList .rddlInner {\n    padding: 1px;\n}\n\n.RadDropDownList .rddlFakeInput {\n   margin: 0;\n   padding: 0;\n   width: 100%;\n   font-size: 9px;\n   display: block;\n   overflow: hidden;\n}\n\nth.rgHeader {\n    padding-left: 2px;\n}\n\n.RadGrid .rgHeader {\n    padding: 1px;\n    text-align: center;\n}\n\n.RadGrid_MetroTDMS .rgHeader:first-child, .RadGrid_MetroTDMS th.rgResizeCol:first-child, .RadGrid_MetroTDMS .rgFilterRow > td:first-child, .RadGrid_MetroTDMS .rgRow > td:first-child, .RadGrid_MetroTDMS .rgAltRow > td:first-child {\n    Padding-left: 2px;\n}\n\n.RadGrid_MetroTDMS .rgHeader {\n    font-size: 10px;\n}\n\n.RadGrid .rgFilterRow>td {\n    padding: 1px;\n}\n.RadDropDownList {\n    margin: 0;\n    padding: 0;\n    width: 100%;\n    min-height: 13px;\n    display: block;\n    overflow: hidden;\n}\n\n.rddlPopup .rddlItem {\n    margin: 0;\n    padding: 0;\n    min-height: 11px;\n}\n\n.rddlPopup_MetroTDMS {\n    border-color: #cdcdcd;\n    color: #000;\n    background-color: #fff;\n    font-size: 10px;\n    font-family: Ubuntu Light;\n}\n\n\n.rtIn {\n    padding: 1px;\n    line-height: .6rem;\n    font-size: .6rem !important;\n}\n\n*/\n\n/* this tweak is great but it messes up the bottom-most row, unfortunately; leaving it here to improve in the future...   \n/* tbody td {width:90%;} */\n\n",
        "domain": "@-moz-document domain(example.com)"
      }
    ]
  }
]